{
	"info": {
		"_postman_id": "8f22e370-28ea-497f-88e8-04fdb966b1ba",
		"name": "s35",
		"schema": "https://schema.getpostman.com/json/collection/v2.1.0/collection.json",
		"_exporter_id": "27193818"
	},
	"item": [
		{
			"name": "activity",
			"item": [
				{
					"name": "POST user",
					"request": {
						"method": "POST",
						"header": [],
						"body": {
							"mode": "raw",
							"raw": "{\r\n    \"username\": \"asd\",\r\n    \"password\": \"iamBeast\"\r\n}",
							"options": {
								"raw": {
									"language": "json"
								}
							}
						},
						"url": {
							"raw": "http://localhost:3001/signup",
							"protocol": "http",
							"host": [
								"localhost"
							],
							"port": "3001",
							"path": [
								"signup"
							]
						}
					},
					"response": []
				}
			]
		},
		{
			"name": "discussion",
			"item": [
				{
					"name": "POST add task",
					"request": {
						"method": "POST",
						"header": [],
						"body": {
							"mode": "raw",
							"raw": "{\r\n    \"name\": \"Activity\"\r\n}",
							"options": {
								"raw": {
									"language": "json"
								}
							}
						},
						"url": {
							"raw": "http://localhost:3001/tasks",
							"protocol": "http",
							"host": [
								"localhost"
							],
							"port": "3001",
							"path": [
								"tasks"
							]
						}
					},
					"response": []
				},
				{
					"name": "GET all task",
					"request": {
						"method": "GET",
						"header": [],
						"url": {
							"raw": "http://localhost:3001/tasks",
							"protocol": "http",
							"host": [
								"localhost"
							],
							"port": "3001",
							"path": [
								"tasks"
							]
						}
					},
					"response": []
				}
			]
		}
	]
}