{
	"transactionId": 1,
	"courseId": 1,
	"userId": 1,
	"isPaid": true,
	"paymentDate": "05/23/2023",
	"transactionDate": "05/23/2023",
	"paymentScheme": "cashG",
}

{
	"transactionId": 2,
	"courseId": 2,
	"userId": 1,
	"isPaid": true,
	"paymentDate": "05/23/2023",
	"transactionDate": "05/23/2023",
	"paymentScheme": "SNPL",
}